{
  "frames": [
    {
      "filename": "EGG_RED001.png",
      "frame": {
        "x": 40,
        "y": 40,
        "w": 2000,
        "h": 2000
      },
      "rotated": false,
      "trimmed": false,
      "spriteSourceSize": {
        "x": 0,
        "y": 0,
        "w": 2000,
        "h": 2000
      },
      "sourceSize": {
        "w": 2000,
        "h": 2000
      },
      "pivot": {
        "x": 0.5,
        "y": 0.5
      }
    },
    {
      "filename": "EGG_RED002.png",
      "frame": {
        "x": 2120,
        "y": 40,
        "w": 2000,
        "h": 2000
      },
      "rotated": false,
      "trimmed": false,
      "spriteSourceSize": {
        "x": 0,
        "y": 0,
        "w": 2000,
        "h": 2000
      },
      "sourceSize": {
        "w": 2000,
        "h": 2000
      },
      "pivot": {
        "x": 0.5,
        "y": 0.5
      }
    },
    {
      "filename": "EGG_RED003.png",
      "frame": {
        "x": 4200,
        "y": 40,
        "w": 2000,
        "h": 2000
      },
      "rotated": false,
      "trimmed": false,
      "spriteSourceSize": {
        "x": 0,
        "y": 0,
        "w": 2000,
        "h": 2000
      },
      "sourceSize": {
        "w": 2000,
        "h": 2000
      },
      "pivot": {
        "x": 0.5,
        "y": 0.5
      }
    },
    {
      "filename": "EGG_RED004.png",
      "frame": {
        "x": 6280,
        "y": 40,
        "w": 2000,
        "h": 2000
      },
      "rotated": false,
      "trimmed": false,
      "spriteSourceSize": {
        "x": 0,
        "y": 0,
        "w": 2000,
        "h": 2000
      },
      "sourceSize": {
        "w": 2000,
        "h": 2000
      },
      "pivot": {
        "x": 0.5,
        "y": 0.5
      }
    },
    {
      "filename": "EGGZ_SPLAT ALL DEAD.png",
      "frame": {
        "x": 40,
        "y": 2120,
        "w": 3000,
        "h": 3000
      },
      "rotated": false,
      "trimmed": false,
      "spriteSourceSize": {
        "x": 0,
        "y": 0,
        "w": 3000,
        "h": 3000
      },
      "sourceSize": {
        "w": 3000,
        "h": 3000
      },
      "pivot": {
        "x": 0.5,
        "y": 0.5
      }
    },
    {
      "filename": "EGG_RED SPLAT.png",
      "frame": {
        "x": 3120,
        "y": 2120,
        "w": 3000,
        "h": 3000
      },
      "rotated": false,
      "trimmed": false,
      "spriteSourceSize": {
        "x": 0,
        "y": 0,
        "w": 3000,
        "h": 3000
      },
      "sourceSize": {
        "w": 3000,
        "h": 3000
      },
      "pivot": {
        "x": 0.5,
        "y": 0.5
      }
    }
  ],
  "meta": {
    "app": "http://free-tex-packer.com",
    "version": "0.6.6",
    "image": "EGG_RED 201220.png",
    "format": "RGBA8888",
    "size": {
      "w": 8320,
      "h": 5160
    },
    "scale": 2
  }
}