[gd_scene load_steps=2 format=2]

[ext_resource path="res://Systems/Dialogue/DialogueControl.tscn" type="PackedScene" id=1]

[node name="Node2D" type="Node2D"]
position = Vector2( 13, 0 )

[node name="Button" type="Button" parent="."]
margin_left = 289.0
margin_right = 537.0
margin_bottom = 30.0
text = "Stan"
__meta__ = {
"_edit_use_anchors_": false
}

[node name="Button3" type="Button" parent="."]
margin_left = 0.500427
margin_top = 110.309
margin_right = 248.5
margin_bottom = 140.309
text = "Glenn"
__meta__ = {
"_edit_use_anchors_": false
}

[node name="Button4" type="Button" parent="."]
margin_left = 291.121
margin_top = 48.7904
margin_right = 539.121
margin_bottom = 78.7904
text = "Tobias"
__meta__ = {
"_edit_use_anchors_": false
}

[node name="Button5" type="Button" parent="."]
margin_left = 1.20752
margin_top = 53.033
margin_right = 249.208
margin_bottom = 83.033
text = "Robin"
__meta__ = {
"_edit_use_anchors_": false
}

[node name="Button2" type="Button" parent="."]
margin_right = 234.0
margin_bottom = 27.0
rect_pivot_offset = Vector2( 51.8903, 27 )
text = "Mimi"
__meta__ = {
"_edit_use_anchors_": false
}

[node name="DialogueControl" parent="." instance=ExtResource( 1 )]
[connection signal="pressed" from="Button" to="DialogueControl" method="OnStanPressed"]
[connection signal="pressed" from="Button3" to="DialogueControl" method="OnGlennPressed"]
[connection signal="pressed" from="Button4" to="DialogueControl" method="OnTobiasPressed"]
[connection signal="pressed" from="Button5" to="DialogueControl" method="OnRobinPressed"]
[connection signal="pressed" from="Button2" to="DialogueControl" method="OnMimiPressed"]
