[gd_scene load_steps=8 format=2]

[ext_resource path="res://Global/SceneManager/SceneManager.cs" type="Script" id=1]
[ext_resource path="res://Global/SceneManager/LoadingBG.png" type="Texture" id=2]
[ext_resource path="res://Global/SceneManager/ball_green.png" type="Texture" id=3]
[ext_resource path="res://Global/SceneManager/rect_black.png" type="Texture" id=4]

[sub_resource type="Animation" id=1]
resource_name = "FadeFromBlack"
length = 0.5
tracks/0/type = "value"
tracks/0/path = NodePath("TexBlack:modulate")
tracks/0/interp = 1
tracks/0/loop_wrap = true
tracks/0/imported = false
tracks/0/enabled = true
tracks/0/keys = {
"times": PoolRealArray( 0, 0.5 ),
"transitions": PoolRealArray( 2.01881, 2.0671 ),
"update": 0,
"values": [ Color( 1, 1, 1, 1 ), Color( 1, 1, 1, 0 ) ]
}

[sub_resource type="Animation" id=2]
resource_name = "FadeToBlack"
length = 0.5
tracks/0/type = "value"
tracks/0/path = NodePath("TexBlack:modulate")
tracks/0/interp = 1
tracks/0/loop_wrap = true
tracks/0/imported = false
tracks/0/enabled = true
tracks/0/keys = {
"times": PoolRealArray( 0, 0.5 ),
"transitions": PoolRealArray( 2.01881, 1 ),
"update": 0,
"values": [ Color( 1, 1, 1, 0 ), Color( 0, 0, 0, 1 ) ]
}

[sub_resource type="Animation" id=3]
resource_name = "Loading"
tracks/0/type = "value"
tracks/0/path = NodePath("TexLoad/Sprite:position")
tracks/0/interp = 1
tracks/0/loop_wrap = true
tracks/0/imported = false
tracks/0/enabled = true
tracks/0/keys = {
"times": PoolRealArray( 0, 1 ),
"transitions": PoolRealArray( 1, 1 ),
"update": 0,
"values": [ Vector2( 503, 100 ), Vector2( 503, 449 ) ]
}

[node name="SceneManager" type="CanvasLayer"]
pause_mode = 2
layer = 2
script = ExtResource( 1 )

[node name="TexLoad" type="TextureRect" parent="."]
visible = false
margin_right = 961.0
margin_bottom = 644.0
texture = ExtResource( 2 )
expand = true

[node name="Sprite" type="Sprite" parent="TexLoad"]
position = Vector2( 502.016, 449.471 )
scale = Vector2( 0.3, 0.3 )
texture = ExtResource( 3 )

[node name="TexBlack" type="TextureRect" parent="."]
visible = false
modulate = Color( 1, 1, 1, 0 )
margin_right = 960.0
margin_bottom = 640.0
texture = ExtResource( 4 )
expand = true

[node name="Anim" type="AnimationPlayer" parent="."]
anims/FadeFromBlack = SubResource( 1 )
anims/FadeToBlack = SubResource( 2 )
anims/Loading = SubResource( 3 )
