[gd_scene load_steps=7 format=2]

[ext_resource path="res://Entities/Coin/SparkleSprite.cs" type="Script" id=1]
[ext_resource path="res://Entities/Coin/Sparkle2.png" type="Texture" id=2]
[ext_resource path="res://Entities/Coin/Sparkle3.png" type="Texture" id=3]
[ext_resource path="res://Entities/Coin/Sparkle1.png" type="Texture" id=4]

[sub_resource type="SpriteFrames" id=1]
animations = [ {
"frames": [ ExtResource( 4 ), ExtResource( 2 ), ExtResource( 3 ) ],
"loop": true,
"name": "default",
"speed": 5.0
} ]

[sub_resource type="Animation" id=2]
resource_name = "Sparkle"
length = 0.5
loop = true
tracks/0/type = "value"
tracks/0/path = NodePath(".:frame")
tracks/0/interp = 1
tracks/0/loop_wrap = true
tracks/0/imported = false
tracks/0/enabled = true
tracks/0/keys = {
"times": PoolRealArray( 0, 0.1, 0.2, 0.3, 0.4 ),
"transitions": PoolRealArray( 1, 1, 1, 1, 1 ),
"update": 1,
"values": [ 0, 1, 2, 1, 0 ]
}
tracks/1/type = "method"
tracks/1/path = NodePath(".")
tracks/1/interp = 1
tracks/1/loop_wrap = true
tracks/1/imported = false
tracks/1/enabled = true
tracks/1/keys = {
"times": PoolRealArray( 0.5 ),
"transitions": PoolRealArray( 1 ),
"values": [ {
"args": [  ],
"method": "SetRandomPos"
} ]
}

[node name="SparkleSprite" type="AnimatedSprite"]
position = Vector2( 0.232697, -1.83282 )
frames = SubResource( 1 )
script = ExtResource( 1 )

[node name="AnimSparkle" type="AnimationPlayer" parent="."]
playback_speed = 0.8
anims/Sparkle = SubResource( 2 )
