{
  "frames": [
    {
      "filename": "EGG_PURPLE001.png",
      "frame": {
        "x": 40,
        "y": 40,
        "w": 2000,
        "h": 2000
      },
      "rotated": false,
      "trimmed": false,
      "spriteSourceSize": {
        "x": 0,
        "y": 0,
        "w": 2000,
        "h": 2000
      },
      "sourceSize": {
        "w": 2000,
        "h": 2000
      },
      "pivot": {
        "x": 0.5,
        "y": 0.5
      }
    },
    {
      "filename": "EGG_PURPLE002.png",
      "frame": {
        "x": 2120,
        "y": 40,
        "w": 2000,
        "h": 2000
      },
      "rotated": false,
      "trimmed": false,
      "spriteSourceSize": {
        "x": 0,
        "y": 0,
        "w": 2000,
        "h": 2000
      },
      "sourceSize": {
        "w": 2000,
        "h": 2000
      },
      "pivot": {
        "x": 0.5,
        "y": 0.5
      }
    },
    {
      "filename": "EGG_PURPLE003.png",
      "frame": {
        "x": 4200,
        "y": 40,
        "w": 2000,
        "h": 2000
      },
      "rotated": false,
      "trimmed": false,
      "spriteSourceSize": {
        "x": 0,
        "y": 0,
        "w": 2000,
        "h": 2000
      },
      "sourceSize": {
        "w": 2000,
        "h": 2000
      },
      "pivot": {
        "x": 0.5,
        "y": 0.5
      }
    },
    {
      "filename": "EGG_PURPLE004.png",
      "frame": {
        "x": 6280,
        "y": 40,
        "w": 2000,
        "h": 2000
      },
      "rotated": false,
      "trimmed": false,
      "spriteSourceSize": {
        "x": 0,
        "y": 0,
        "w": 2000,
        "h": 2000
      },
      "sourceSize": {
        "w": 2000,
        "h": 2000
      },
      "pivot": {
        "x": 0.5,
        "y": 0.5
      }
    }
  ],
  "meta": {
    "app": "http://free-tex-packer.com",
    "version": "0.6.6",
    "image": "egg_purple.png",
    "format": "RGBA8888",
    "size": {
      "w": 8320,
      "h": 2080
    },
    "scale": 2
  }
}